^D:\SANDBOX\FEU2010\FEU2010\FEU2010\FRMABOUTME.RESX
C:\WINDOWS\ASSEMBLY\PUBPOL78.DAT
^D:\SANDBOX\FEU2010\FEU2010\FEU2010\FRMUPLOADRESULT.RESX
^D:\SANDBOX\FEU2010\FEU2010\FEU2010\FRMWAITING.RESX
^D:\SANDBOX\FEU2010\FEU2010\FEU2010\FRMLOGIN.RESX
^D:\SANDBOX\FEU2010\FEU2010\FEU2010\RIBBON1.RESX
^D:\SANDBOX\FEU2010\FEU2010\FEU2010\MY PROJECT\RESOURCES.RESX
D:\SANDBOX\FEU2010\FEU2010\FEU2010\RESOURCES\BG.JPG
D:\SANDBOX\FEU2010\FEU2010\FEU2010\RESOURCES\MAILUPLOADER32.PNG
D:\SANDBOX\FEU2010\FEU2010\FEU2010\RESOURCES\MAILUPLOADER48.PNG
D:\SANDBOX\FEU2010\FEU2010\FEU2010\RESOURCES\BGBIG.JPG
